%!PS-Adobe-3.0 EPSF-3.0 
%%BoundingBox: 0 0 1024 768
%%Pages: 0
%%Creator: LibreOffice 5.2
%%Title: none
%%CreationDate: none
%%LanguageLevel: 2
%%EndComments
%%BeginProlog
%%BeginResource: procset SDRes-Prolog 1.0 0
/b4_inc_state save def
/dict_count countdictstack def
/op_count count 1 sub def
userdict begin
0 setgray 0 setlinecap 1 setlinewidth 0 setlinejoin 10 setmiterlimit[] 0 setdash newpath
/languagelevel where {pop languagelevel 1 ne {false setstrokeadjust false setoverprint} if} if
/bdef {bind def} bind def
/c {setrgbcolor} bdef
/l {neg lineto} bdef
/rl {neg rlineto} bdef
/lc {setlinecap} bdef
/lj {setlinejoin} bdef
/lw {setlinewidth} bdef
/ml {setmiterlimit} bdef
/ld {setdash} bdef
/m {neg moveto} bdef
/ct {6 2 roll neg 6 2 roll neg 6 2 roll neg curveto} bdef
/r {rotate} bdef
/t {neg translate} bdef
/s {scale} bdef
/sw {show} bdef
/gs {gsave} bdef
/gr {grestore} bdef
/f {findfont dup length dict begin
{1 index /FID ne {def} {pop pop} ifelse} forall /Encoding ISOLatin1Encoding def
currentdict end /NFont exch definefont pop /NFont findfont} bdef
/p {closepath} bdef
/sf {scalefont setfont} bdef
/ef {eofill}bdef
/pc {closepath stroke}bdef
/ps {stroke}bdef
/pum {matrix currentmatrix}bdef
/pom {setmatrix}bdef
/bs {/aString exch def /nXOfs exch def /nWidth exch def currentpoint nXOfs 0 rmoveto pum nWidth aString stringwidth pop div 1 scale aString show pom moveto} bdef
%%EndResource
%%EndProlog
%%BeginSetup
%%EndSetup
%%Page: 1 1
%%BeginPageSetup
%%EndPageSetup
pum
0.02834 0.02834 s 
0 -27093 t
/tm matrix currentmatrix def
gs
0 0 m 36123 0 l 36123 27092 l 0 27092 l 0 0 l eoclip newpath
gs
0 0 m 36123 0 l 36123 27092 l 0 27092 l 0 0 l eoclip newpath
1.000 1.000 1.000 c 0 0 m  36124 0 l  36124 27093 l  0 27093 l  0 0 l  p ef
0.933 0.140 0.050 c 16562 3098 m  16562 3098 l  16564 3022 l  16570 2947 l 
16579 2872 l  16593 2798 l  16610 2724 l  16631 2652 l  16655 2580 l  16683 2510 l 
16715 2441 l  16750 2374 l  16789 2309 l  16831 2246 l  16875 2185 l  16924 2127 l 
16974 2071 l  17028 2017 l  17085 1967 l  17144 1919 l  17205 1874 l  17268 1833 l 
17334 1794 l  17401 1759 l  17470 1728 l  17541 1700 l  17613 1675 l  17686 1655 l 
17760 1638 l  17835 1624 l  17910 1615 l  17986 1609 l  18062 1607 l  18062 1607 l 
18140 1609 l  18219 1615 l  18297 1625 l  18374 1640 l  18450 1658 l  18525 1680 l 
18599 1706 l  18672 1736 l  18743 1769 l  18812 1807 l  18879 1847 l  18943 1892 l 
19006 1939 l  19065 1990 l  19122 2043 l  19176 2100 l  19227 2159 l  19275 2221 l 
19320 2285 l  19361 2352 l  19398 2420 l  19432 2491 l  19462 2563 l  19488 2636 l 
19511 2711 l  19529 2787 l  19543 2864 l  19554 2941 l  19560 3019 l  19562 3097 l 
19561 3097 l  19559 3175 l  19553 3253 l  19543 3330 l  19528 3407 l  19510 3483 l 
19488 3558 l  19461 3631 l  19431 3703 l  19398 3774 l  19360 3842 l  19319 3909 l 
19275 3973 l  19227 4035 l  19176 4094 l  19122 4151 l  19065 4205 l  19005 4255 l 
18943 4303 l  18878 4347 l  18812 4388 l  18743 4425 l  18672 4459 l  18599 4489 l 
18525 4515 l  18450 4537 l  18374 4555 l  18297 4570 l  18219 4580 l  18140 4586 l 
18062 4588 l  18062 4588 l  17984 4586 l  17905 4580 l  17827 4570 l  17750 4555 l 
17674 4537 l  17599 4515 l  17525 4489 l  17452 4459 l  17381 4426 l  17312 4388 l 
17245 4348 l  17181 4303 l  17118 4256 l  17059 4205 l  17002 4152 l  16948 4095 l 
16897 4036 l  16849 3974 l  16804 3910 l  16763 3843 l  16726 3775 l  16692 3704 l 
16662 3632 l  16636 3559 l  16613 3484 l  16595 3408 l  16581 3331 l  16570 3254 l 
16564 3176 l  16562 3098 l  16562 3098 l  p
16562 1607 m  16562 1607 l  p
19563 4589 m  19563 4589 l  p ef
pum
17298 3408 t
1.000 1.000 1.000 c 415 -547 m  415 -473 l  386 -487 359 -497 333 -504 ct 
307 -511 282 -514 258 -514 ct 217 -514 185 -506 162 -490 ct 139 -474 128 -451 128 -421 ct 
128 -396 136 -377 151 -364 ct 166 -351 194 -341 236 -333 ct 282 -324 l  339 -313 382 -294 409 -266 ct 
436 -239 449 -202 449 -156 ct 449 -101 431 -60 394 -31 ct 358 -3 304 11 233 11 ct 
206 11 177 8 147 2 ct 117 -4 86 -13 53 -25 ct 53 -104 l  85 -86 115 -73 145 -64 ct 
175 -56 204 -51 233 -51 ct 276 -51 310 -60 334 -77 ct 358 -94 369 -119 369 -151 ct 
369 -178 361 -200 344 -216 ct 327 -231 299 -243 260 -251 ct 213 -260 l  156 -271 115 -289 89 -314 ct 
64 -338 51 -372 51 -415 ct 51 -465 69 -504 104 -533 ct 139 -562 188 -576 250 -576 ct 
276 -576 303 -574 331 -569 ct 358 -564 386 -557 415 -547 ct p ef
835 -265 m  852 -260 868 -248 883 -229 ct 899 -211 914 -186 930 -154 ct 1008 1 l 
926 1 l  853 -145 l  835 -183 816 -208 799 -220 ct 781 -233 757 -239 727 -239 ct 
644 -239 l  644 1 l  567 1 l  567 -566 l  740 -566 l  805 -566 853 -552 885 -525 ct 
917 -498 932 -457 932 -403 ct 932 -367 924 -338 908 -314 ct 891 -291 867 -274 835 -265 ct 
p
644 -503 m  644 -302 l  740 -302 l  777 -302 805 -311 823 -328 ct 842 -345 852 -370 852 -403 ct 
852 -436 842 -461 823 -478 ct 805 -495 777 -503 740 -503 ct 644 -503 l  p ef
1486 -522 m  1486 -441 l  1460 -465 1433 -483 1403 -495 ct 1374 -507 1343 -513 1310 -513 ct 
1246 -513 1196 -493 1162 -454 ct 1127 -414 1110 -357 1110 -282 ct 1110 -208 1127 -151 1162 -111 ct 
1196 -72 1246 -52 1310 -52 ct 1343 -52 1374 -58 1403 -70 ct 1433 -82 1460 -100 1486 -124 ct 
1486 -44 l  1459 -25 1431 -12 1401 -3 ct 1371 6 1339 11 1306 11 ct 1220 11 1153 -15 1103 -68 ct 
1054 -120 1030 -192 1030 -282 ct 1030 -373 1054 -445 1103 -497 ct 1153 -550 1220 -576 1306 -576 ct 
1340 -576 1372 -572 1401 -563 ct 1431 -554 1460 -540 1486 -522 ct p ef
pom
0.574 0.574 0.574 c 13730 8294 m  13730 8294 l  13732 8215 l  13738 8137 l 
13748 8059 l  13763 7982 l  13781 7906 l  13803 7830 l  13830 7756 l  13860 7683 l 
13893 7613 l  13931 7543 l  13972 7476 l  14016 7412 l  14064 7349 l  14115 7290 l 
14169 7233 l  14226 7179 l  14286 7128 l  14348 7080 l  14413 7035 l  14480 6994 l 
14548 6957 l  14619 6923 l  14692 6893 l  14766 6866 l  14841 6844 l  14917 6826 l 
14995 6811 l  15072 6801 l  15151 6795 l  15229 6793 l  15229 6793 l  15307 6795 l 
15386 6801 l  15463 6811 l  15541 6826 l  15617 6844 l  15692 6866 l  15766 6893 l 
15839 6923 l  15910 6957 l  15979 6994 l  16045 7035 l  16110 7080 l  16172 7128 l 
16232 7179 l  16289 7233 l  16343 7290 l  16394 7349 l  16442 7412 l  16486 7476 l 
16527 7544 l  16565 7613 l  16598 7683 l  16628 7756 l  16655 7830 l  16677 7906 l 
16695 7982 l  16710 8059 l  16720 8137 l  16726 8215 l  16728 8294 l  16727 8294 l 
16725 8373 l  16719 8451 l  16709 8529 l  16694 8606 l  16676 8682 l  16654 8758 l 
16628 8832 l  16598 8904 l  16564 8975 l  16526 9044 l  16485 9111 l  16441 9176 l 
16393 9238 l  16342 9298 l  16288 9355 l  16231 9409 l  16172 9460 l  16110 9508 l 
16045 9552 l  15978 9594 l  15909 9631 l  15838 9665 l  15766 9695 l  15692 9721 l 
15617 9744 l  15541 9762 l  15463 9776 l  15386 9787 l  15307 9793 l  15229 9795 l 
15229 9794 l  15151 9792 l  15072 9786 l  14995 9776 l  14917 9761 l  14841 9743 l 
14766 9721 l  14692 9694 l  14620 9664 l  14549 9631 l  14480 9593 l  14413 9552 l 
14348 9508 l  14286 9460 l  14226 9409 l  14169 9355 l  14115 9298 l  14064 9238 l 
14017 9176 l  13972 9111 l  13931 9044 l  13894 8975 l  13860 8904 l  13830 8832 l 
13804 8758 l  13781 8682 l  13763 8606 l  13749 8529 l  13738 8451 l  13732 8373 l 
13730 8294 l  13730 8294 l  p
13730 6793 m  13730 6793 l  p
16729 9796 m  16729 9796 l  p ef
pum
14694 8605 t
1.000 1.000 1.000 c 76 -566 m  179 -566 l  430 -93 l  430 -566 l  504 -566 l 
504 0 l  401 0 l  150 -474 l  150 0 l  76 0 l  76 -566 l  p ef
676 -64 m  801 -64 l  801 -496 l  665 -469 l  665 -539 l  801 -566 l  877 -566 l 
877 -64 l  1002 -64 l  1002 0 l  676 0 l  676 -64 l  p ef
pom
0.574 0.574 0.574 c 20781 8294 m  20781 8294 l  20783 8216 l  20789 8137 l 
20799 8060 l  20814 7982 l  20832 7906 l  20854 7831 l  20881 7757 l  20911 7684 l 
20944 7613 l  20982 7544 l  21023 7478 l  21067 7413 l  21115 7351 l  21166 7291 l 
21220 7234 l  21277 7180 l  21337 7129 l  21399 7081 l  21464 7037 l  21531 6996 l 
21599 6958 l  21670 6925 l  21743 6895 l  21817 6868 l  21892 6846 l  21968 6828 l 
22046 6813 l  22123 6803 l  22202 6797 l  22280 6795 l  22280 6795 l  22358 6797 l 
22437 6803 l  22514 6813 l  22592 6828 l  22668 6846 l  22743 6868 l  22817 6895 l 
22890 6925 l  22961 6958 l  23030 6996 l  23096 7037 l  23161 7081 l  23223 7129 l 
23283 7180 l  23340 7234 l  23394 7291 l  23445 7351 l  23493 7413 l  23537 7478 l 
23578 7545 l  23616 7613 l  23649 7684 l  23679 7757 l  23706 7831 l  23728 7906 l 
23746 7982 l  23761 8060 l  23771 8137 l  23777 8216 l  23779 8294 l  23778 8294 l 
23776 8372 l  23770 8451 l  23760 8528 l  23745 8606 l  23727 8682 l  23705 8757 l 
23679 8831 l  23649 8903 l  23615 8974 l  23577 9043 l  23536 9110 l  23492 9175 l 
23444 9237 l  23393 9297 l  23339 9354 l  23282 9408 l  23223 9459 l  23161 9506 l 
23096 9551 l  23029 9592 l  22960 9629 l  22889 9663 l  22817 9693 l  22743 9719 l 
22668 9742 l  22592 9760 l  22514 9774 l  22437 9785 l  22358 9791 l  22280 9793 l 
22280 9792 l  22202 9790 l  22123 9784 l  22046 9774 l  21968 9759 l  21892 9741 l 
21817 9719 l  21743 9693 l  21671 9663 l  21600 9629 l  21531 9591 l  21464 9550 l 
21399 9506 l  21337 9458 l  21277 9407 l  21220 9353 l  21166 9296 l  21115 9237 l 
21068 9175 l  21023 9110 l  20982 9043 l  20945 8974 l  20911 8903 l  20881 8831 l 
20855 8757 l  20832 8682 l  20814 8606 l  20800 8528 l  20789 8451 l  20783 8372 l 
20781 8294 l  20781 8294 l  p
20781 6795 m  20781 6795 l  p
23780 9794 m  23780 9794 l  p ef
pum
21745 8605 t
1.000 1.000 1.000 c 76 -566 m  179 -566 l  430 -93 l  430 -566 l  504 -566 l 
504 0 l  401 0 l  150 -474 l  150 0 l  76 0 l  76 -566 l  p ef
729 -64 m  996 -64 l  996 0 l  637 0 l  637 -64 l  666 -95 705 -135 756 -186 ct 
806 -236 837 -269 850 -284 ct 875 -311 892 -335 902 -354 ct 911 -373 916 -392 916 -410 ct 
916 -440 906 -465 884 -484 ct 863 -503 836 -512 802 -512 ct 778 -512 753 -508 726 -499 ct 
699 -491 671 -479 641 -462 ct 641 -539 l  671 -551 700 -561 727 -567 ct 754 -573 778 -576 801 -576 ct 
859 -576 906 -562 941 -532 ct 976 -503 993 -464 993 -415 ct 993 -392 989 -370 980 -349 ct 
971 -328 955 -303 932 -275 ct 926 -268 906 -246 872 -211 ct 838 -176 791 -127 729 -64 ct 
p ef
pom
0.574 0.574 0.574 c 17413 14754 m  17413 14754 l  17415 14676 l  17421 14597 l 
17431 14520 l  17446 14442 l  17464 14366 l  17486 14291 l  17513 14217 l 
17543 14144 l  17576 14073 l  17614 14004 l  17655 13938 l  17699 13873 l 
17747 13811 l  17798 13751 l  17852 13694 l  17909 13640 l  17969 13589 l 
18031 13541 l  18096 13497 l  18163 13456 l  18231 13418 l  18302 13385 l 
18375 13355 l  18449 13328 l  18524 13306 l  18600 13288 l  18678 13273 l 
18755 13263 l  18834 13257 l  18912 13255 l  18912 13255 l  18990 13257 l 
19069 13263 l  19146 13273 l  19224 13288 l  19300 13306 l  19375 13328 l 
19449 13355 l  19522 13385 l  19593 13418 l  19662 13456 l  19728 13497 l 
19793 13541 l  19855 13589 l  19915 13640 l  19972 13694 l  20026 13751 l 
20077 13811 l  20125 13873 l  20169 13938 l  20210 14005 l  20248 14073 l 
20281 14144 l  20311 14217 l  20338 14291 l  20360 14366 l  20378 14442 l 
20393 14520 l  20403 14597 l  20409 14676 l  20411 14754 l  20410 14754 l 
20408 14832 l  20402 14911 l  20392 14988 l  20377 15066 l  20359 15142 l 
20337 15217 l  20311 15291 l  20281 15363 l  20247 15434 l  20209 15503 l 
20168 15570 l  20124 15635 l  20076 15697 l  20025 15757 l  19971 15814 l 
19914 15868 l  19855 15919 l  19793 15966 l  19728 16011 l  19661 16052 l 
19592 16089 l  19521 16123 l  19449 16153 l  19375 16179 l  19300 16202 l 
19224 16220 l  19146 16234 l  19069 16245 l  18990 16251 l  18912 16253 l 
18912 16252 l  18834 16250 l  18755 16244 l  18678 16234 l  18600 16219 l 
18524 16201 l  18449 16179 l  18375 16153 l  18303 16123 l  18232 16089 l 
18163 16051 l  18096 16010 l  18031 15966 l  17969 15918 l  17909 15867 l 
17852 15813 l  17798 15756 l  17747 15697 l  17700 15635 l  17655 15570 l 
17614 15503 l  17577 15434 l  17543 15363 l  17513 15291 l  17487 15217 l 
17464 15142 l  17446 15066 l  17432 14988 l  17421 14911 l  17415 14832 l 
17413 14754 l  17413 14754 l  p
17413 13255 m  17413 13255 l  p
20412 16254 m  20412 16254 l  p ef
pum
18377 15065 t
1.000 1.000 1.000 c 76 -566 m  179 -566 l  430 -93 l  430 -566 l  504 -566 l 
504 0 l  401 0 l  150 -474 l  150 0 l  76 0 l  76 -566 l  p ef
895 -305 m  932 -297 960 -281 981 -256 ct 1001 -232 1012 -201 1012 -165 ct 1012 -109 992 -65 954 -35 ct 
916 -4 861 11 790 11 ct 767 11 742 9 717 4 ct 692 -1 666 -8 639 -17 ct 639 -91 l 
660 -79 684 -69 709 -63 ct 734 -57 760 -53 788 -53 ct 836 -53 873 -63 898 -82 ct 
923 -101 935 -128 935 -165 ct 935 -198 924 -224 900 -243 ct 877 -262 844 -271 803 -271 ct 
737 -271 l  737 -334 l  806 -334 l  843 -334 872 -342 892 -357 ct 912 -372 922 -393 922 -422 ct 
922 -451 912 -473 891 -489 ct 871 -504 841 -512 803 -512 ct 782 -512 759 -510 735 -505 ct 
711 -501 685 -494 656 -484 ct 656 -552 l  685 -560 712 -566 738 -570 ct 763 -574 787 -576 810 -576 ct 
868 -576 914 -563 948 -537 ct 981 -510 998 -475 998 -430 ct 998 -398 989 -372 971 -350 ct 
953 -329 928 -314 895 -305 ct p ef
pom
0.574 0.574 0.574 c 20783 20281 m  20783 20281 l  20785 20203 l  20791 20124 l 
20801 20047 l  20816 19969 l  20834 19893 l  20856 19818 l  20883 19744 l 
20913 19671 l  20946 19600 l  20984 19531 l  21025 19465 l  21069 19400 l 
21117 19338 l  21168 19278 l  21222 19221 l  21279 19167 l  21339 19116 l 
21401 19068 l  21466 19024 l  21533 18983 l  21601 18945 l  21672 18912 l 
21745 18882 l  21819 18855 l  21894 18833 l  21970 18815 l  22048 18800 l 
22125 18790 l  22204 18784 l  22282 18782 l  22282 18782 l  22360 18784 l 
22439 18790 l  22516 18800 l  22594 18815 l  22670 18833 l  22745 18855 l 
22819 18882 l  22892 18912 l  22963 18945 l  23032 18983 l  23098 19024 l 
23163 19068 l  23225 19116 l  23285 19167 l  23342 19221 l  23396 19278 l 
23447 19338 l  23495 19400 l  23539 19465 l  23580 19532 l  23618 19600 l 
23651 19671 l  23681 19744 l  23708 19818 l  23730 19893 l  23748 19969 l 
23763 20047 l  23773 20124 l  23779 20203 l  23781 20281 l  23780 20281 l 
23778 20359 l  23772 20438 l  23762 20515 l  23747 20593 l  23729 20669 l 
23707 20744 l  23681 20818 l  23651 20890 l  23617 20961 l  23579 21030 l 
23538 21097 l  23494 21162 l  23446 21224 l  23395 21284 l  23341 21341 l 
23284 21395 l  23225 21446 l  23163 21493 l  23098 21538 l  23031 21579 l 
22962 21616 l  22891 21650 l  22819 21680 l  22745 21706 l  22670 21729 l 
22594 21747 l  22516 21761 l  22439 21772 l  22360 21778 l  22282 21780 l 
22282 21779 l  22204 21777 l  22125 21771 l  22048 21761 l  21970 21746 l 
21894 21728 l  21819 21706 l  21745 21680 l  21673 21650 l  21602 21616 l 
21533 21578 l  21466 21537 l  21401 21493 l  21339 21445 l  21279 21394 l 
21222 21340 l  21168 21283 l  21117 21224 l  21070 21162 l  21025 21097 l 
20984 21030 l  20947 20961 l  20913 20890 l  20883 20818 l  20857 20744 l 
20834 20669 l  20816 20593 l  20802 20515 l  20791 20438 l  20785 20359 l 
20783 20281 l  20783 20281 l  p
20783 18782 m  20783 18782 l  p
23782 21781 m  23782 21781 l  p ef
pum
21747 20592 t
1.000 1.000 1.000 c 76 -566 m  179 -566 l  430 -93 l  430 -566 l  504 -566 l 
504 0 l  401 0 l  150 -474 l  150 0 l  76 0 l  76 -566 l  p ef
873 -500 m  680 -198 l  873 -198 l  873 -500 l  p
853 -567 m  949 -567 l  949 -198 l  1030 -198 l  1030 -134 l  949 -134 l 
949 -1 l  873 -1 l  873 -134 l  618 -134 l  618 -208 l  853 -567 l  p ef
pom
0.875 0.566 0.210 c 14091 19900 m  14091 19900 l  14093 19822 l  14099 19743 l 
14109 19666 l  14124 19588 l  14142 19512 l  14164 19437 l  14191 19363 l 
14221 19290 l  14254 19219 l  14292 19150 l  14333 19084 l  14377 19019 l 
14425 18957 l  14476 18897 l  14530 18840 l  14587 18786 l  14647 18735 l 
14709 18687 l  14774 18643 l  14841 18602 l  14909 18564 l  14980 18531 l 
15053 18501 l  15127 18474 l  15202 18452 l  15278 18434 l  15356 18419 l 
15433 18409 l  15512 18403 l  15590 18401 l  15590 18401 l  15668 18403 l 
15747 18409 l  15824 18419 l  15902 18434 l  15978 18452 l  16053 18474 l 
16127 18501 l  16200 18531 l  16271 18564 l  16340 18602 l  16406 18643 l 
16471 18687 l  16533 18735 l  16593 18786 l  16650 18840 l  16704 18897 l 
16755 18957 l  16803 19019 l  16847 19084 l  16888 19151 l  16926 19219 l 
16959 19290 l  16989 19363 l  17016 19437 l  17038 19512 l  17056 19588 l 
17071 19666 l  17081 19743 l  17087 19822 l  17089 19900 l  17088 19900 l 
17086 19978 l  17080 20057 l  17070 20134 l  17055 20212 l  17037 20288 l 
17015 20363 l  16989 20437 l  16959 20509 l  16925 20580 l  16887 20649 l 
16846 20716 l  16802 20781 l  16754 20843 l  16703 20903 l  16649 20960 l 
16592 21014 l  16533 21065 l  16471 21112 l  16406 21157 l  16339 21198 l 
16270 21235 l  16199 21269 l  16127 21299 l  16053 21325 l  15978 21348 l 
15902 21366 l  15824 21380 l  15747 21391 l  15668 21397 l  15590 21399 l 
15590 21398 l  15512 21396 l  15433 21390 l  15356 21380 l  15278 21365 l 
15202 21347 l  15127 21325 l  15053 21299 l  14981 21269 l  14910 21235 l 
14841 21197 l  14774 21156 l  14709 21112 l  14647 21064 l  14587 21013 l 
14530 20959 l  14476 20902 l  14425 20843 l  14378 20781 l  14333 20716 l 
14292 20649 l  14255 20580 l  14221 20509 l  14191 20437 l  14165 20363 l 
14142 20288 l  14124 20212 l  14110 20134 l  14099 20057 l  14093 19978 l 
14091 19900 l  14091 19900 l  p
14091 18401 m  14091 18401 l  p
17090 21400 m  17090 21400 l  p ef
pum
14809 20211 t
1.000 1.000 1.000 c 153 -503 m  153 -63 l  245 -63 l  323 -63 380 -81 417 -116 ct 
453 -151 471 -207 471 -284 ct 471 -359 453 -415 417 -450 ct 380 -485 323 -503 245 -503 ct 
153 -503 l  p
76 -566 m  233 -566 l  343 -566 424 -543 475 -498 ct 526 -452 552 -381 552 -284 ct 
552 -186 526 -114 474 -69 ct 423 -23 343 0 233 0 ct 76 0 l  76 -566 l  p ef
1012 -547 m  1012 -473 l  983 -487 956 -497 930 -504 ct 904 -511 879 -514 855 -514 ct 
814 -514 782 -506 759 -490 ct 736 -474 725 -451 725 -421 ct 725 -396 733 -377 748 -364 ct 
763 -351 791 -341 833 -333 ct 879 -324 l  936 -313 979 -294 1006 -266 ct 1033 -239 1046 -202 1046 -156 ct 
1046 -101 1028 -60 991 -31 ct 955 -3 901 11 830 11 ct 803 11 774 8 744 2 ct 714 -4 683 -13 650 -25 ct 
650 -104 l  682 -86 712 -73 742 -64 ct 772 -56 801 -51 830 -51 ct 873 -51 907 -60 931 -77 ct 
955 -94 966 -119 966 -151 ct 966 -178 958 -200 941 -216 ct 924 -231 896 -243 857 -251 ct 
810 -260 l  753 -271 712 -289 686 -314 ct 661 -338 648 -372 648 -415 ct 648 -465 666 -504 701 -533 ct 
736 -562 785 -576 847 -576 ct 873 -576 900 -574 928 -569 ct 955 -564 983 -557 1012 -547 ct 
p ef
1086 -566 m  1564 -566 l  1564 -502 l  1363 -502 l  1363 -1 l  1287 -1 l 
1287 -502 l  1086 -502 l  1086 -566 l  p ef
pom
0.003 0.636 1.000 c 18024 7227 m  18126 7227 18230 7224 18335 7214 ct 18970 7155 19512 6887 19968 6442 ct 
19876 6349 19787 6260 19697 6170 ct 19239 6609 18697 6843 18062 6843 ct 17427 6842 16884 6607 16431 6169 ct 
16341 6259 16251 6350 16158 6443 ct 16692 6951 17313 7220 18024 7227 ct 18024 7227 l 
p
18045 6457 m  18118 6458 18193 6454 18269 6447 ct 18718 6402 19102 6212 19424 5896 ct 
19332 5804 19242 5715 19152 5625 ct 18848 5919 18485 6073 18062 6073 ct 17639 6072 17277 5916 16976 5623 ct 
16885 5714 16795 5804 16703 5896 ct 17087 6262 17534 6455 18045 6457 ct 18045 6457 l 
p
18095 5688 m  18391 5680 18677 5559 18876 5352 ct 18786 5261 18695 5170 18606 5080 ct 
18309 5375 17825 5381 17522 5081 ct 17430 5172 17340 5261 17250 5351 ct 17491 5592 17798 5696 18095 5688 ct 
18095 5688 l  p
18073 4917 m  18174 4915 18271 4875 18333 4805 ct 18242 4714 18153 4624 18064 4535 ct 
17975 4625 17885 4715 17794 4805 ct 17869 4884 17973 4920 18073 4917 ct 18073 4917 l 
p
19967 7228 m  19967 7228 l  p
16159 4534 m  16159 4534 l  p ef
19046 19141 m  19159 19141 19274 19138 19391 19127 ct 20095 19061 20695 18763 21201 18269 ct 
21099 18167 21000 18068 20900 17968 ct 20393 18455 19792 18714 19088 18714 ct 
18384 18714 17782 18453 17280 17967 ct 17180 18067 17081 18167 16977 18271 ct 
17569 18835 18257 19134 19046 19141 ct 19046 19141 l  p
19069 18287 m  19150 18287 19233 18283 19317 18275 ct 19815 18226 20241 18014 20598 17664 ct 
20496 17562 20397 17463 20296 17362 ct 19959 17689 19557 17860 19088 17860 ct 
18619 17859 18218 17685 17884 17361 ct 17783 17462 17683 17562 17581 17664 ct 
18007 18070 18502 18285 19069 18287 ct 19069 18287 l  p
19124 17433 m  19453 17424 19770 17290 19990 17059 ct 19890 16959 19791 16858 19691 16758 ct 
19361 17085 18825 17092 18490 16759 ct 18388 16860 18287 16959 18187 17059 ct 
18455 17326 18796 17442 19124 17433 ct 19124 17433 l  p
19100 16577 m  19211 16575 19319 16531 19388 16452 ct 19288 16352 19188 16252 19090 16154 ct 
18991 16252 18891 16353 18791 16453 ct 18874 16541 18989 16580 19100 16577 ct 
19100 16577 l  p
21200 19142 m  21200 19142 l  p
16978 16152 m  16978 16152 l  p ef
pum
20363 5850 t
0.796 0.167 0.480 c 304 -344 m  337 -344 361 -350 376 -363 ct 390 -375 397 -396 397 -424 ct 
397 -452 390 -473 376 -485 ct 361 -497 337 -503 304 -503 ct 237 -503 l  237 -344 l 
304 -344 l  p
237 -234 m  237 0 l  78 0 l  78 -619 l  321 -619 l  402 -619 462 -605 500 -578 ct 
538 -550 557 -507 557 -448 ct 557 -407 547 -373 527 -347 ct 507 -321 478 -302 438 -289 ct 
460 -284 479 -273 496 -255 ct 514 -238 531 -211 549 -176 ct 635 0 l  466 0 l 
390 -154 l  375 -185 360 -206 344 -217 ct 329 -228 308 -234 282 -234 ct 237 -234 l 
p ef
956 -344 m  989 -344 1013 -350 1028 -363 ct 1042 -375 1049 -396 1049 -424 ct 
1049 -452 1042 -473 1028 -485 ct 1013 -497 989 -503 956 -503 ct 889 -503 l  889 -344 l 
956 -344 l  p
889 -234 m  889 0 l  730 0 l  730 -619 l  973 -619 l  1054 -619 1114 -605 1152 -578 ct 
1190 -550 1209 -507 1209 -448 ct 1209 -407 1199 -373 1179 -347 ct 1159 -321 1130 -302 1090 -289 ct 
1112 -284 1131 -273 1148 -255 ct 1166 -238 1183 -211 1201 -176 ct 1287 0 l  1118 0 l 
1042 -154 l  1027 -185 1012 -206 996 -217 ct 981 -228 960 -234 934 -234 ct 889 -234 l 
p ef
1382 -619 m  1811 -619 l  1811 -498 l  1541 -498 l  1541 -383 l  1795 -383 l 
1795 -262 l  1541 -262 l  1541 -121 l  1821 -121 l  1821 0 l  1382 0 l 
1382 -619 l  p ef
1962 -619 m  2226 -619 l  2305 -619 2365 -601 2407 -566 ct 2449 -531 2470 -482 2470 -417 ct 
2470 -352 2449 -302 2407 -267 ct 2365 -232 2305 -215 2226 -215 ct 2121 -215 l 
2121 -1 l  1962 -1 l  1962 -619 l  p
2121 -503 m  2121 -331 l  2209 -331 l  2240 -331 2264 -338 2281 -353 ct 2297 -368 2306 -389 2306 -417 ct 
2306 -445 2297 -466 2281 -481 ct 2264 -496 2240 -503 2209 -503 ct 2121 -503 l 
p ef
pom
pum
17197 12227 t
304 -344 m  337 -344 361 -350 376 -363 ct 390 -375 397 -396 397 -424 ct 397 -452 390 -473 376 -485 ct 
361 -497 337 -503 304 -503 ct 237 -503 l  237 -344 l  304 -344 l  p
237 -234 m  237 0 l  78 0 l  78 -619 l  321 -619 l  402 -619 462 -605 500 -578 ct 
538 -550 557 -507 557 -448 ct 557 -407 547 -373 527 -347 ct 507 -321 478 -302 438 -289 ct 
460 -284 479 -273 496 -255 ct 514 -238 531 -211 549 -176 ct 635 0 l  466 0 l 
390 -154 l  375 -185 360 -206 344 -217 ct 329 -228 308 -234 282 -234 ct 237 -234 l 
p ef
956 -344 m  989 -344 1013 -350 1028 -363 ct 1042 -375 1049 -396 1049 -424 ct 
1049 -452 1042 -473 1028 -485 ct 1013 -497 989 -503 956 -503 ct 889 -503 l  889 -344 l 
956 -344 l  p
889 -234 m  889 0 l  730 0 l  730 -619 l  973 -619 l  1054 -619 1114 -605 1152 -578 ct 
1190 -550 1209 -507 1209 -448 ct 1209 -407 1199 -373 1179 -347 ct 1159 -321 1130 -302 1090 -289 ct 
1112 -284 1131 -273 1148 -255 ct 1166 -238 1183 -211 1201 -176 ct 1287 0 l  1118 0 l 
1042 -154 l  1027 -185 1012 -206 996 -217 ct 981 -228 960 -234 934 -234 ct 889 -234 l 
p ef
1382 -619 m  1811 -619 l  1811 -498 l  1541 -498 l  1541 -383 l  1795 -383 l 
1795 -262 l  1541 -262 l  1541 -121 l  1821 -121 l  1821 0 l  1382 0 l 
1382 -619 l  p ef
1962 -619 m  2226 -619 l  2305 -619 2365 -601 2407 -566 ct 2449 -531 2470 -482 2470 -417 ct 
2470 -352 2449 -302 2407 -267 ct 2365 -232 2305 -215 2226 -215 ct 2121 -215 l 
2121 -1 l  1962 -1 l  1962 -619 l  p
2121 -503 m  2121 -331 l  2209 -331 l  2240 -331 2264 -338 2281 -353 ct 2297 -368 2306 -389 2306 -417 ct 
2306 -445 2297 -466 2281 -481 ct 2264 -496 2240 -503 2209 -503 ct 2121 -503 l 
p ef
pom
pum
13896 17346 t
304 -344 m  337 -344 361 -350 376 -363 ct 390 -375 397 -396 397 -424 ct 397 -452 390 -473 376 -485 ct 
361 -497 337 -503 304 -503 ct 237 -503 l  237 -344 l  304 -344 l  p
237 -234 m  237 0 l  78 0 l  78 -619 l  321 -619 l  402 -619 462 -605 500 -578 ct 
538 -550 557 -507 557 -448 ct 557 -407 547 -373 527 -347 ct 507 -321 478 -302 438 -289 ct 
460 -284 479 -273 496 -255 ct 514 -238 531 -211 549 -176 ct 635 0 l  466 0 l 
390 -154 l  375 -185 360 -206 344 -217 ct 329 -228 308 -234 282 -234 ct 237 -234 l 
p ef
956 -344 m  989 -344 1013 -350 1028 -363 ct 1042 -375 1049 -396 1049 -424 ct 
1049 -452 1042 -473 1028 -485 ct 1013 -497 989 -503 956 -503 ct 889 -503 l  889 -344 l 
956 -344 l  p
889 -234 m  889 0 l  730 0 l  730 -619 l  973 -619 l  1054 -619 1114 -605 1152 -578 ct 
1190 -550 1209 -507 1209 -448 ct 1209 -407 1199 -373 1179 -347 ct 1159 -321 1130 -302 1090 -289 ct 
1112 -284 1131 -273 1148 -255 ct 1166 -238 1183 -211 1201 -176 ct 1287 0 l  1118 0 l 
1042 -154 l  1027 -185 1012 -206 996 -217 ct 981 -228 960 -234 934 -234 ct 889 -234 l 
p ef
1382 -619 m  1811 -619 l  1811 -498 l  1541 -498 l  1541 -383 l  1795 -383 l 
1795 -262 l  1541 -262 l  1541 -121 l  1821 -121 l  1821 0 l  1382 0 l 
1382 -619 l  p ef
1962 -619 m  2226 -619 l  2305 -619 2365 -601 2407 -566 ct 2449 -531 2470 -482 2470 -417 ct 
2470 -352 2449 -302 2407 -267 ct 2365 -232 2305 -215 2226 -215 ct 2121 -215 l 
2121 -1 l  1962 -1 l  1962 -619 l  p
2121 -503 m  2121 -331 l  2209 -331 l  2240 -331 2264 -338 2281 -353 ct 2297 -368 2306 -389 2306 -417 ct 
2306 -445 2297 -466 2281 -481 ct 2264 -496 2240 -503 2209 -503 ct 2121 -503 l 
p ef
pom
0.003 0.636 1.000 c 22240 24949 m  22353 24949 22468 24946 22585 24935 ct 23289 24869 23889 24571 24395 24077 ct 
24293 23975 24194 23876 24094 23776 ct 23587 24263 22986 24522 22282 24522 ct 
21578 24522 20976 24261 20474 23775 ct 20374 23875 20275 23975 20171 24079 ct 
20763 24643 21451 24942 22240 24949 ct 22240 24949 l  p
22263 24095 m  22344 24095 22427 24091 22511 24083 ct 23009 24034 23435 23822 23792 23472 ct 
23690 23370 23591 23271 23490 23170 ct 23153 23497 22751 23668 22282 23668 ct 
21813 23667 21412 23493 21078 23169 ct 20977 23270 20877 23370 20775 23472 ct 
21201 23878 21696 24093 22263 24095 ct 22263 24095 l  p
22318 23241 m  22647 23232 22964 23098 23184 22867 ct 23084 22767 22985 22666 22885 22566 ct 
22555 22893 22019 22900 21684 22567 ct 21582 22668 21481 22767 21381 22867 ct 
21649 23134 21990 23250 22318 23241 ct 22318 23241 l  p
22294 22385 m  22405 22383 22513 22339 22582 22260 ct 22482 22160 22382 22060 22284 21962 ct 
22185 22060 22085 22161 21985 22261 ct 22068 22349 22183 22388 22294 22385 ct 
22294 22385 l  p
24394 24950 m  24394 24950 l  p
20172 21960 m  20172 21960 l  p ef
pum
16830 8108 t
0.003 0.464 0.730 c 304 -344 m  337 -344 361 -350 376 -363 ct 390 -375 397 -396 397 -424 ct 
397 -452 390 -473 376 -485 ct 361 -497 337 -503 304 -503 ct 237 -503 l  237 -344 l 
304 -344 l  p
237 -234 m  237 0 l  78 0 l  78 -619 l  321 -619 l  402 -619 462 -605 500 -578 ct 
538 -550 557 -507 557 -448 ct 557 -407 547 -373 527 -347 ct 507 -321 478 -302 438 -289 ct 
460 -284 479 -273 496 -255 ct 514 -238 531 -211 549 -176 ct 635 0 l  466 0 l 
390 -154 l  375 -185 360 -206 344 -217 ct 329 -228 308 -234 282 -234 ct 237 -234 l 
p ef
956 -344 m  989 -344 1013 -350 1028 -363 ct 1042 -375 1049 -396 1049 -424 ct 
1049 -452 1042 -473 1028 -485 ct 1013 -497 989 -503 956 -503 ct 889 -503 l  889 -344 l 
956 -344 l  p
889 -234 m  889 0 l  730 0 l  730 -619 l  973 -619 l  1054 -619 1114 -605 1152 -578 ct 
1190 -550 1209 -507 1209 -448 ct 1209 -407 1199 -373 1179 -347 ct 1159 -321 1130 -302 1090 -289 ct 
1112 -284 1131 -273 1148 -255 ct 1166 -238 1183 -211 1201 -176 ct 1287 0 l  1118 0 l 
1042 -154 l  1027 -185 1012 -206 996 -217 ct 981 -228 960 -234 934 -234 ct 889 -234 l 
p ef
1382 -619 m  1811 -619 l  1811 -498 l  1541 -498 l  1541 -383 l  1795 -383 l 
1795 -262 l  1541 -262 l  1541 -121 l  1821 -121 l  1821 0 l  1382 0 l 
1382 -619 l  p ef
2261 11 m  2248 11 l  2147 11 2067 -17 2011 -73 ct 1954 -130 1926 -208 1926 -309 ct 
1926 -409 1954 -487 2011 -544 ct 2067 -601 2145 -630 2244 -630 ct 2344 -630 2422 -601 2478 -545 ct 
2534 -489 2561 -410 2561 -309 ct 2561 -239 2547 -179 2517 -129 ct 2487 -79 2445 -41 2389 -16 ct 
2513 124 l  2362 124 l  2261 11 l  p
2244 -514 m  2195 -514 2158 -496 2131 -460 ct 2104 -424 2091 -374 2091 -309 ct 
2091 -242 2104 -192 2130 -157 ct 2156 -121 2194 -104 2244 -104 ct 2293 -104 2330 -122 2357 -158 ct 
2384 -193 2397 -244 2397 -309 ct 2397 -374 2384 -424 2357 -460 ct 2330 -496 2293 -514 2244 -514 ct 
p ef
pom
pum
21086 13987 t
304 -344 m  337 -344 361 -350 376 -363 ct 390 -375 397 -396 397 -424 ct 397 -452 390 -473 376 -485 ct 
361 -497 337 -503 304 -503 ct 237 -503 l  237 -344 l  304 -344 l  p
237 -234 m  237 0 l  78 0 l  78 -619 l  321 -619 l  402 -619 462 -605 500 -578 ct 
538 -550 557 -507 557 -448 ct 557 -407 547 -373 527 -347 ct 507 -321 478 -302 438 -289 ct 
460 -284 479 -273 496 -255 ct 514 -238 531 -211 549 -176 ct 635 0 l  466 0 l 
390 -154 l  375 -185 360 -206 344 -217 ct 329 -228 308 -234 282 -234 ct 237 -234 l 
p ef
956 -344 m  989 -344 1013 -350 1028 -363 ct 1042 -375 1049 -396 1049 -424 ct 
1049 -452 1042 -473 1028 -485 ct 1013 -497 989 -503 956 -503 ct 889 -503 l  889 -344 l 
956 -344 l  p
889 -234 m  889 0 l  730 0 l  730 -619 l  973 -619 l  1054 -619 1114 -605 1152 -578 ct 
1190 -550 1209 -507 1209 -448 ct 1209 -407 1199 -373 1179 -347 ct 1159 -321 1130 -302 1090 -289 ct 
1112 -284 1131 -273 1148 -255 ct 1166 -238 1183 -211 1201 -176 ct 1287 0 l  1118 0 l 
1042 -154 l  1027 -185 1012 -206 996 -217 ct 981 -228 960 -234 934 -234 ct 889 -234 l 
p ef
1382 -619 m  1811 -619 l  1811 -498 l  1541 -498 l  1541 -383 l  1795 -383 l 
1795 -262 l  1541 -262 l  1541 -121 l  1821 -121 l  1821 0 l  1382 0 l 
1382 -619 l  p ef
2261 11 m  2248 11 l  2147 11 2067 -17 2011 -73 ct 1954 -130 1926 -208 1926 -309 ct 
1926 -409 1954 -487 2011 -544 ct 2067 -601 2145 -630 2244 -630 ct 2344 -630 2422 -601 2478 -545 ct 
2534 -489 2561 -410 2561 -309 ct 2561 -239 2547 -179 2517 -129 ct 2487 -79 2445 -41 2389 -16 ct 
2513 124 l  2362 124 l  2261 11 l  p
2244 -514 m  2195 -514 2158 -496 2131 -460 ct 2104 -424 2091 -374 2091 -309 ct 
2091 -242 2104 -192 2130 -157 ct 2156 -121 2194 -104 2244 -104 ct 2293 -104 2330 -122 2357 -158 ct 
2384 -193 2397 -244 2397 -309 ct 2397 -374 2384 -424 2357 -460 ct 2330 -496 2293 -514 2244 -514 ct 
p ef
pom
pum
17633 20240 t
304 -344 m  337 -344 361 -350 376 -363 ct 390 -375 397 -396 397 -424 ct 397 -452 390 -473 376 -485 ct 
361 -497 337 -503 304 -503 ct 237 -503 l  237 -344 l  304 -344 l  p
237 -234 m  237 0 l  78 0 l  78 -619 l  321 -619 l  402 -619 462 -605 500 -578 ct 
538 -550 557 -507 557 -448 ct 557 -407 547 -373 527 -347 ct 507 -321 478 -302 438 -289 ct 
460 -284 479 -273 496 -255 ct 514 -238 531 -211 549 -176 ct 635 0 l  466 0 l 
390 -154 l  375 -185 360 -206 344 -217 ct 329 -228 308 -234 282 -234 ct 237 -234 l 
p ef
956 -344 m  989 -344 1013 -350 1028 -363 ct 1042 -375 1049 -396 1049 -424 ct 
1049 -452 1042 -473 1028 -485 ct 1013 -497 989 -503 956 -503 ct 889 -503 l  889 -344 l 
956 -344 l  p
889 -234 m  889 0 l  730 0 l  730 -619 l  973 -619 l  1054 -619 1114 -605 1152 -578 ct 
1190 -550 1209 -507 1209 -448 ct 1209 -407 1199 -373 1179 -347 ct 1159 -321 1130 -302 1090 -289 ct 
1112 -284 1131 -273 1148 -255 ct 1166 -238 1183 -211 1201 -176 ct 1287 0 l  1118 0 l 
1042 -154 l  1027 -185 1012 -206 996 -217 ct 981 -228 960 -234 934 -234 ct 889 -234 l 
p ef
1382 -619 m  1811 -619 l  1811 -498 l  1541 -498 l  1541 -383 l  1795 -383 l 
1795 -262 l  1541 -262 l  1541 -121 l  1821 -121 l  1821 0 l  1382 0 l 
1382 -619 l  p ef
2261 11 m  2248 11 l  2147 11 2067 -17 2011 -73 ct 1954 -130 1926 -208 1926 -309 ct 
1926 -409 1954 -487 2011 -544 ct 2067 -601 2145 -630 2244 -630 ct 2344 -630 2422 -601 2478 -545 ct 
2534 -489 2561 -410 2561 -309 ct 2561 -239 2547 -179 2517 -129 ct 2487 -79 2445 -41 2389 -16 ct 
2513 124 l  2362 124 l  2261 11 l  p
2244 -514 m  2195 -514 2158 -496 2131 -460 ct 2104 -424 2091 -374 2091 -309 ct 
2091 -242 2104 -192 2130 -157 ct 2156 -121 2194 -104 2244 -104 ct 2293 -104 2330 -122 2357 -158 ct 
2384 -193 2397 -244 2397 -309 ct 2397 -374 2384 -424 2357 -460 ct 2330 -496 2293 -514 2244 -514 ct 
p ef
pom
pum
21086 25820 t
304 -344 m  337 -344 361 -350 376 -363 ct 390 -375 397 -396 397 -424 ct 397 -452 390 -473 376 -485 ct 
361 -497 337 -503 304 -503 ct 237 -503 l  237 -344 l  304 -344 l  p
237 -234 m  237 0 l  78 0 l  78 -619 l  321 -619 l  402 -619 462 -605 500 -578 ct 
538 -550 557 -507 557 -448 ct 557 -407 547 -373 527 -347 ct 507 -321 478 -302 438 -289 ct 
460 -284 479 -273 496 -255 ct 514 -238 531 -211 549 -176 ct 635 0 l  466 0 l 
390 -154 l  375 -185 360 -206 344 -217 ct 329 -228 308 -234 282 -234 ct 237 -234 l 
p ef
956 -344 m  989 -344 1013 -350 1028 -363 ct 1042 -375 1049 -396 1049 -424 ct 
1049 -452 1042 -473 1028 -485 ct 1013 -497 989 -503 956 -503 ct 889 -503 l  889 -344 l 
956 -344 l  p
889 -234 m  889 0 l  730 0 l  730 -619 l  973 -619 l  1054 -619 1114 -605 1152 -578 ct 
1190 -550 1209 -507 1209 -448 ct 1209 -407 1199 -373 1179 -347 ct 1159 -321 1130 -302 1090 -289 ct 
1112 -284 1131 -273 1148 -255 ct 1166 -238 1183 -211 1201 -176 ct 1287 0 l  1118 0 l 
1042 -154 l  1027 -185 1012 -206 996 -217 ct 981 -228 960 -234 934 -234 ct 889 -234 l 
p ef
1382 -619 m  1811 -619 l  1811 -498 l  1541 -498 l  1541 -383 l  1795 -383 l 
1795 -262 l  1541 -262 l  1541 -121 l  1821 -121 l  1821 0 l  1382 0 l 
1382 -619 l  p ef
2261 11 m  2248 11 l  2147 11 2067 -17 2011 -73 ct 1954 -130 1926 -208 1926 -309 ct 
1926 -409 1954 -487 2011 -544 ct 2067 -601 2145 -630 2244 -630 ct 2344 -630 2422 -601 2478 -545 ct 
2534 -489 2561 -410 2561 -309 ct 2561 -239 2547 -179 2517 -129 ct 2487 -79 2445 -41 2389 -16 ct 
2513 124 l  2362 124 l  2261 11 l  p
2244 -514 m  2195 -514 2158 -496 2131 -460 ct 2104 -424 2091 -374 2091 -309 ct 
2091 -242 2104 -192 2130 -157 ct 2156 -121 2194 -104 2244 -104 ct 2293 -104 2330 -122 2357 -158 ct 
2384 -193 2397 -244 2397 -309 ct 2397 -374 2384 -424 2357 -460 ct 2330 -496 2293 -514 2244 -514 ct 
p ef
pom
pum
21052 14860 t
0.011 0.441 0.007 c 65 -515 m  198 -515 l  198 -319 l  393 -319 l  393 -515 l 
526 -515 l  526 0 l  393 0 l  393 -219 l  198 -219 l  198 0 l  65 0 l 
65 -515 l  p ef
1038 -194 m  1038 -159 l  749 -159 l  752 -130 763 -108 781 -94 ct 798 -79 824 -72 856 -72 ct 
882 -72 908 -76 935 -84 ct 963 -91 991 -103 1019 -119 ct 1019 -23 l  990 -12 961 -4 932 2 ct 
903 7 874 10 844 10 ct 774 10 720 -8 681 -43 ct 643 -79 623 -129 623 -193 ct 623 -256 642 -306 680 -342 ct 
718 -378 771 -396 837 -396 ct 898 -396 947 -378 983 -341 ct 1019 -304 1038 -256 1038 -194 ct 
p
911 -235 m  911 -259 904 -278 890 -292 ct 877 -307 859 -314 837 -314 ct 813 -314 793 -307 778 -294 ct 
764 -280 754 -261 751 -235 ct 911 -235 l  p ef
1303 -174 m  1278 -174 1258 -170 1245 -161 ct 1232 -152 1226 -139 1226 -122 ct 
1226 -107 1231 -94 1241 -85 ct 1252 -77 1266 -72 1285 -72 ct 1308 -72 1328 -81 1344 -97 ct 
1360 -114 1367 -135 1367 -160 ct 1367 -174 l  1303 -174 l  p
1492 -221 m  1492 0 l  1367 0 l  1367 -57 l  1351 -34 1332 -17 1312 -6 ct 
1291 5 1266 10 1236 10 ct 1196 10 1164 -2 1139 -25 ct 1114 -48 1101 -79 1101 -116 ct 
1101 -161 1117 -195 1148 -216 ct 1179 -237 1228 -248 1295 -248 ct 1367 -248 l 
1367 -257 l  1367 -277 1360 -291 1344 -300 ct 1329 -309 1305 -314 1272 -314 ct 
1246 -314 1221 -311 1199 -306 ct 1176 -301 1155 -293 1135 -282 ct 1135 -376 l 
1162 -383 1188 -388 1215 -391 ct 1241 -394 1268 -396 1295 -396 ct 1364 -396 1415 -382 1446 -355 ct 
1476 -327 1492 -283 1492 -221 ct p ef
1871 -330 m  1871 -537 l  1995 -537 l  1995 0 l  1871 0 l  1871 -56 l 
1854 -33 1835 -16 1815 -6 ct 1794 5 1771 10 1744 10 ct 1696 10 1657 -9 1627 -47 ct 
1596 -85 1581 -133 1581 -193 ct 1581 -252 1596 -301 1627 -339 ct 1657 -377 1696 -396 1744 -396 ct 
1770 -396 1794 -390 1815 -380 ct 1835 -369 1854 -352 1871 -330 ct p
1790 -80 m  1816 -80 1836 -89 1850 -109 ct 1864 -128 1871 -156 1871 -193 ct 
1871 -230 1864 -258 1850 -277 ct 1836 -296 1816 -306 1790 -306 ct 1763 -306 1743 -296 1729 -277 ct 
1716 -258 1709 -230 1709 -193 ct 1709 -156 1716 -128 1729 -109 ct 1743 -89 1763 -80 1790 -80 ct 
p ef
2502 -194 m  2502 -159 l  2213 -159 l  2216 -130 2227 -108 2245 -94 ct 2262 -79 2288 -72 2320 -72 ct 
2346 -72 2372 -76 2399 -84 ct 2427 -91 2455 -103 2483 -119 ct 2483 -23 l  2454 -12 2425 -4 2396 2 ct 
2367 7 2338 10 2308 10 ct 2238 10 2184 -8 2145 -43 ct 2107 -79 2087 -129 2087 -193 ct 
2087 -256 2106 -306 2144 -342 ct 2182 -378 2235 -396 2301 -396 ct 2362 -396 2411 -378 2447 -341 ct 
2483 -304 2502 -256 2502 -194 ct p
2375 -235 m  2375 -259 2368 -278 2354 -292 ct 2341 -307 2323 -314 2301 -314 ct 
2277 -314 2257 -307 2242 -294 ct 2228 -280 2218 -261 2215 -235 ct 2375 -235 l 
p ef
2882 -281 m  2871 -286 2861 -290 2850 -292 ct 2839 -295 2828 -296 2818 -296 ct 
2786 -296 2762 -286 2744 -265 ct 2727 -245 2719 -216 2719 -178 ct 2719 0 l  2595 0 l 
2595 -387 l  2719 -387 l  2719 -323 l  2735 -348 2753 -366 2773 -378 ct 2794 -389 2819 -395 2847 -395 ct 
2851 -395 2856 -395 2861 -395 ct 2866 -395 2873 -394 2882 -393 ct 2882 -281 l 
p ef
pom
pum
21359 15707 t
517 -336 m  184 -221 l  517 -107 l  517 -21 l  75 -181 l  75 -262 l  517 -422 l 
517 -336 l  p ef
658 -515 m  806 -515 l  993 -162 l  993 -515 l  1119 -515 l  1119 0 l 
971 0 l  784 -354 l  784 0 l  658 0 l  658 -515 l  p ef
1388 -98 m  1615 -98 l  1615 0 l  1241 0 l  1241 -98 l  1429 -264 l  1446 -279 1458 -294 1466 -308 ct 
1474 -323 1478 -338 1478 -354 ct 1478 -378 1470 -397 1454 -412 ct 1438 -427 1416 -434 1389 -434 ct 
1368 -434 1346 -430 1321 -421 ct 1297 -412 1270 -399 1242 -381 ct 1242 -494 l 
1272 -504 1302 -512 1331 -517 ct 1360 -522 1389 -525 1417 -525 ct 1478 -525 1526 -511 1560 -484 ct 
1594 -457 1611 -419 1611 -370 ct 1611 -342 1604 -316 1590 -292 ct 1575 -268 1545 -235 1498 -194 ct 
1388 -98 l  p ef
1751 -336 m  1751 -422 l  2193 -262 l  2193 -181 l  1751 -21 l  1751 -107 l 
2083 -221 l  1751 -336 l  p ef
pom
pum
17401 21058 t
65 -515 m  198 -515 l  198 -319 l  393 -319 l  393 -515 l  526 -515 l 
526 0 l  393 0 l  393 -219 l  198 -219 l  198 0 l  65 0 l  65 -515 l  p ef
1038 -194 m  1038 -159 l  749 -159 l  752 -130 763 -108 781 -94 ct 798 -79 824 -72 856 -72 ct 
882 -72 908 -76 935 -84 ct 963 -91 991 -103 1019 -119 ct 1019 -23 l  990 -12 961 -4 932 2 ct 
903 7 874 10 844 10 ct 774 10 720 -8 681 -43 ct 643 -79 623 -129 623 -193 ct 623 -256 642 -306 680 -342 ct 
718 -378 771 -396 837 -396 ct 898 -396 947 -378 983 -341 ct 1019 -304 1038 -256 1038 -194 ct 
p
911 -235 m  911 -259 904 -278 890 -292 ct 877 -307 859 -314 837 -314 ct 813 -314 793 -307 778 -294 ct 
764 -280 754 -261 751 -235 ct 911 -235 l  p ef
1303 -174 m  1278 -174 1258 -170 1245 -161 ct 1232 -152 1226 -139 1226 -122 ct 
1226 -107 1231 -94 1241 -85 ct 1252 -77 1266 -72 1285 -72 ct 1308 -72 1328 -81 1344 -97 ct 
1360 -114 1367 -135 1367 -160 ct 1367 -174 l  1303 -174 l  p
1492 -221 m  1492 0 l  1367 0 l  1367 -57 l  1351 -34 1332 -17 1312 -6 ct 
1291 5 1266 10 1236 10 ct 1196 10 1164 -2 1139 -25 ct 1114 -48 1101 -79 1101 -116 ct 
1101 -161 1117 -195 1148 -216 ct 1179 -237 1228 -248 1295 -248 ct 1367 -248 l 
1367 -257 l  1367 -277 1360 -291 1344 -300 ct 1329 -309 1305 -314 1272 -314 ct 
1246 -314 1221 -311 1199 -306 ct 1176 -301 1155 -293 1135 -282 ct 1135 -376 l 
1162 -383 1188 -388 1215 -391 ct 1241 -394 1268 -396 1295 -396 ct 1364 -396 1415 -382 1446 -355 ct 
1476 -327 1492 -283 1492 -221 ct p ef
1871 -330 m  1871 -537 l  1995 -537 l  1995 0 l  1871 0 l  1871 -56 l 
1854 -33 1835 -16 1815 -6 ct 1794 5 1771 10 1744 10 ct 1696 10 1657 -9 1627 -47 ct 
1596 -85 1581 -133 1581 -193 ct 1581 -252 1596 -301 1627 -339 ct 1657 -377 1696 -396 1744 -396 ct 
1770 -396 1794 -390 1815 -380 ct 1835 -369 1854 -352 1871 -330 ct p
1790 -80 m  1816 -80 1836 -89 1850 -109 ct 1864 -128 1871 -156 1871 -193 ct 
1871 -230 1864 -258 1850 -277 ct 1836 -296 1816 -306 1790 -306 ct 1763 -306 1743 -296 1729 -277 ct 
1716 -258 1709 -230 1709 -193 ct 1709 -156 1716 -128 1729 -109 ct 1743 -89 1763 -80 1790 -80 ct 
p ef
2502 -194 m  2502 -159 l  2213 -159 l  2216 -130 2227 -108 2245 -94 ct 2262 -79 2288 -72 2320 -72 ct 
2346 -72 2372 -76 2399 -84 ct 2427 -91 2455 -103 2483 -119 ct 2483 -23 l  2454 -12 2425 -4 2396 2 ct 
2367 7 2338 10 2308 10 ct 2238 10 2184 -8 2145 -43 ct 2107 -79 2087 -129 2087 -193 ct 
2087 -256 2106 -306 2144 -342 ct 2182 -378 2235 -396 2301 -396 ct 2362 -396 2411 -378 2447 -341 ct 
2483 -304 2502 -256 2502 -194 ct p
2375 -235 m  2375 -259 2368 -278 2354 -292 ct 2341 -307 2323 -314 2301 -314 ct 
2277 -314 2257 -307 2242 -294 ct 2228 -280 2218 -261 2215 -235 ct 2375 -235 l 
p ef
2882 -281 m  2871 -286 2861 -290 2850 -292 ct 2839 -295 2828 -296 2818 -296 ct 
2786 -296 2762 -286 2744 -265 ct 2727 -245 2719 -216 2719 -178 ct 2719 0 l  2595 0 l 
2595 -387 l  2719 -387 l  2719 -323 l  2735 -348 2753 -366 2773 -378 ct 2794 -389 2819 -395 2847 -395 ct 
2851 -395 2856 -395 2861 -395 ct 2866 -395 2873 -394 2882 -393 ct 2882 -281 l 
p ef
pom
pum
16910 21905 t
517 -336 m  184 -221 l  517 -107 l  517 -21 l  75 -181 l  75 -262 l  517 -422 l 
517 -336 l  p ef
658 -515 m  806 -515 l  993 -162 l  993 -515 l  1119 -515 l  1119 0 l 
971 0 l  784 -354 l  784 0 l  658 0 l  658 -515 l  p ef
1388 -98 m  1615 -98 l  1615 0 l  1241 0 l  1241 -98 l  1429 -264 l  1446 -279 1458 -294 1466 -308 ct 
1474 -323 1478 -338 1478 -354 ct 1478 -378 1470 -397 1454 -412 ct 1438 -427 1416 -434 1389 -434 ct 
1368 -434 1346 -430 1321 -421 ct 1297 -412 1270 -399 1242 -381 ct 1242 -494 l 
1272 -504 1302 -512 1331 -517 ct 1360 -522 1389 -525 1417 -525 ct 1478 -525 1526 -511 1560 -484 ct 
1594 -457 1611 -419 1611 -370 ct 1611 -342 1604 -316 1590 -292 ct 1575 -268 1545 -235 1498 -194 ct 
1388 -98 l  p ef
1748 -134 m  1872 -134 l  1872 -29 l  1787 100 l  1714 100 l  1748 -29 l 
1748 -134 l  p ef
2254 -515 m  2402 -515 l  2589 -162 l  2589 -515 l  2715 -515 l  2715 0 l 
2567 0 l  2380 -354 l  2380 0 l  2254 0 l  2254 -515 l  p ef
3110 -278 m  3145 -269 3171 -253 3189 -231 ct 3207 -209 3216 -181 3216 -146 ct 
3216 -95 3197 -56 3157 -30 ct 3118 -3 3061 10 2986 10 ct 2960 10 2934 8 2907 4 ct 
2880 -1 2854 -7 2828 -16 ct 2828 -118 l  2853 -106 2878 -96 2902 -90 ct 2927 -84 2951 -80 2974 -80 ct 
3010 -80 3037 -87 3055 -99 ct 3074 -111 3083 -129 3083 -151 ct 3083 -175 3074 -193 3055 -205 ct 
3035 -217 3007 -223 2970 -223 ct 2916 -223 l  2916 -309 l  2972 -309 l  3006 -309 3030 -314 3047 -324 ct 
3063 -335 3071 -351 3071 -372 ct 3071 -392 3063 -407 3047 -418 ct 3032 -429 3009 -434 2980 -434 ct 
2959 -434 2937 -432 2915 -427 ct 2894 -422 2872 -415 2850 -405 ct 2850 -503 l 
2877 -510 2902 -516 2928 -519 ct 2954 -523 2979 -525 3004 -525 ct 3071 -525 3121 -514 3154 -492 ct 
3187 -470 3204 -437 3204 -393 ct 3204 -362 3196 -338 3180 -319 ct 3164 -299 3141 -286 3110 -278 ct 
p ef
3347 -336 m  3347 -422 l  3789 -262 l  3789 -181 l  3347 -21 l  3347 -107 l 
3679 -221 l  3347 -336 l  p ef
pom
pum
16692 24660 t
65 -515 m  198 -515 l  198 -319 l  393 -319 l  393 -515 l  526 -515 l 
526 0 l  393 0 l  393 -219 l  198 -219 l  198 0 l  65 0 l  65 -515 l  p ef
1038 -194 m  1038 -159 l  749 -159 l  752 -130 763 -108 781 -94 ct 798 -79 824 -72 856 -72 ct 
882 -72 908 -76 935 -84 ct 963 -91 991 -103 1019 -119 ct 1019 -23 l  990 -12 961 -4 932 2 ct 
903 7 874 10 844 10 ct 774 10 720 -8 681 -43 ct 643 -79 623 -129 623 -193 ct 623 -256 642 -306 680 -342 ct 
718 -378 771 -396 837 -396 ct 898 -396 947 -378 983 -341 ct 1019 -304 1038 -256 1038 -194 ct 
p
911 -235 m  911 -259 904 -278 890 -292 ct 877 -307 859 -314 837 -314 ct 813 -314 793 -307 778 -294 ct 
764 -280 754 -261 751 -235 ct 911 -235 l  p ef
1303 -174 m  1278 -174 1258 -170 1245 -161 ct 1232 -152 1226 -139 1226 -122 ct 
1226 -107 1231 -94 1241 -85 ct 1252 -77 1266 -72 1285 -72 ct 1308 -72 1328 -81 1344 -97 ct 
1360 -114 1367 -135 1367 -160 ct 1367 -174 l  1303 -174 l  p
1492 -221 m  1492 0 l  1367 0 l  1367 -57 l  1351 -34 1332 -17 1312 -6 ct 
1291 5 1266 10 1236 10 ct 1196 10 1164 -2 1139 -25 ct 1114 -48 1101 -79 1101 -116 ct 
1101 -161 1117 -195 1148 -216 ct 1179 -237 1228 -248 1295 -248 ct 1367 -248 l 
1367 -257 l  1367 -277 1360 -291 1344 -300 ct 1329 -309 1305 -314 1272 -314 ct 
1246 -314 1221 -311 1199 -306 ct 1176 -301 1155 -293 1135 -282 ct 1135 -376 l 
1162 -383 1188 -388 1215 -391 ct 1241 -394 1268 -396 1295 -396 ct 1364 -396 1415 -382 1446 -355 ct 
1476 -327 1492 -283 1492 -221 ct p ef
1871 -330 m  1871 -537 l  1995 -537 l  1995 0 l  1871 0 l  1871 -56 l 
1854 -33 1835 -16 1815 -6 ct 1794 5 1771 10 1744 10 ct 1696 10 1657 -9 1627 -47 ct 
1596 -85 1581 -133 1581 -193 ct 1581 -252 1596 -301 1627 -339 ct 1657 -377 1696 -396 1744 -396 ct 
1770 -396 1794 -390 1815 -380 ct 1835 -369 1854 -352 1871 -330 ct p
1790 -80 m  1816 -80 1836 -89 1850 -109 ct 1864 -128 1871 -156 1871 -193 ct 
1871 -230 1864 -258 1850 -277 ct 1836 -296 1816 -306 1790 -306 ct 1763 -306 1743 -296 1729 -277 ct 
1716 -258 1709 -230 1709 -193 ct 1709 -156 1716 -128 1729 -109 ct 1743 -89 1763 -80 1790 -80 ct 
p ef
2502 -194 m  2502 -159 l  2213 -159 l  2216 -130 2227 -108 2245 -94 ct 2262 -79 2288 -72 2320 -72 ct 
2346 -72 2372 -76 2399 -84 ct 2427 -91 2455 -103 2483 -119 ct 2483 -23 l  2454 -12 2425 -4 2396 2 ct 
2367 7 2338 10 2308 10 ct 2238 10 2184 -8 2145 -43 ct 2107 -79 2087 -129 2087 -193 ct 
2087 -256 2106 -306 2144 -342 ct 2182 -378 2235 -396 2301 -396 ct 2362 -396 2411 -378 2447 -341 ct 
2483 -304 2502 -256 2502 -194 ct p
2375 -235 m  2375 -259 2368 -278 2354 -292 ct 2341 -307 2323 -314 2301 -314 ct 
2277 -314 2257 -307 2242 -294 ct 2228 -280 2218 -261 2215 -235 ct 2375 -235 l 
p ef
2882 -281 m  2871 -286 2861 -290 2850 -292 ct 2839 -295 2828 -296 2818 -296 ct 
2786 -296 2762 -286 2744 -265 ct 2727 -245 2719 -216 2719 -178 ct 2719 0 l  2595 0 l 
2595 -387 l  2719 -387 l  2719 -323 l  2735 -348 2753 -366 2773 -378 ct 2794 -389 2819 -395 2847 -395 ct 
2851 -395 2856 -395 2861 -395 ct 2866 -395 2873 -394 2882 -393 ct 2882 -281 l 
p ef
pom
pum
15403 25507 t
517 -336 m  184 -221 l  517 -107 l  517 -21 l  75 -181 l  75 -262 l  517 -422 l 
517 -336 l  p ef
658 -515 m  806 -515 l  993 -162 l  993 -515 l  1119 -515 l  1119 0 l 
971 0 l  784 -354 l  784 0 l  658 0 l  658 -515 l  p ef
1388 -98 m  1615 -98 l  1615 0 l  1241 0 l  1241 -98 l  1429 -264 l  1446 -279 1458 -294 1466 -308 ct 
1474 -323 1478 -338 1478 -354 ct 1478 -378 1470 -397 1454 -412 ct 1438 -427 1416 -434 1389 -434 ct 
1368 -434 1346 -430 1321 -421 ct 1297 -412 1270 -399 1242 -381 ct 1242 -494 l 
1272 -504 1302 -512 1331 -517 ct 1360 -522 1389 -525 1417 -525 ct 1478 -525 1526 -511 1560 -484 ct 
1594 -457 1611 -419 1611 -370 ct 1611 -342 1604 -316 1590 -292 ct 1575 -268 1545 -235 1498 -194 ct 
1388 -98 l  p ef
1748 -134 m  1872 -134 l  1872 -29 l  1787 100 l  1714 100 l  1748 -29 l 
1748 -134 l  p ef
2254 -515 m  2402 -515 l  2589 -162 l  2589 -515 l  2715 -515 l  2715 0 l 
2567 0 l  2380 -354 l  2380 0 l  2254 0 l  2254 -515 l  p ef
3110 -278 m  3145 -269 3171 -253 3189 -231 ct 3207 -209 3216 -181 3216 -146 ct 
3216 -95 3197 -56 3157 -30 ct 3118 -3 3061 10 2986 10 ct 2960 10 2934 8 2907 4 ct 
2880 -1 2854 -7 2828 -16 ct 2828 -118 l  2853 -106 2878 -96 2902 -90 ct 2927 -84 2951 -80 2974 -80 ct 
3010 -80 3037 -87 3055 -99 ct 3074 -111 3083 -129 3083 -151 ct 3083 -175 3074 -193 3055 -205 ct 
3035 -217 3007 -223 2970 -223 ct 2916 -223 l  2916 -309 l  2972 -309 l  3006 -309 3030 -314 3047 -324 ct 
3063 -335 3071 -351 3071 -372 ct 3071 -392 3063 -407 3047 -418 ct 3032 -429 3009 -434 2980 -434 ct 
2959 -434 2937 -432 2915 -427 ct 2894 -422 2872 -415 2850 -405 ct 2850 -503 l 
2877 -510 2902 -516 2928 -519 ct 2954 -523 2979 -525 3004 -525 ct 3071 -525 3121 -514 3154 -492 ct 
3187 -470 3204 -437 3204 -393 ct 3204 -362 3196 -338 3180 -319 ct 3164 -299 3141 -286 3110 -278 ct 
p ef
3344 -134 m  3468 -134 l  3468 -29 l  3383 100 l  3310 100 l  3344 -29 l 
3344 -134 l  p ef
3850 -515 m  3998 -515 l  4185 -162 l  4185 -515 l  4311 -515 l  4311 0 l 
4163 0 l  3976 -354 l  3976 0 l  3850 0 l  3850 -515 l  p ef
4637 -406 m  4491 -190 l  4637 -190 l  4637 -406 l  p
4615 -516 m  4762 -516 l  4762 -190 l  4836 -190 l  4836 -94 l  4762 -94 l 
4762 0 l  4637 0 l  4637 -94 l  4409 -94 l  4409 -208 l  4615 -516 l  p ef
4943 -336 m  4943 -422 l  5385 -262 l  5385 -181 l  4943 -21 l  4943 -107 l 
5275 -221 l  4943 -336 l  p ef
pom
0.003 0.636 1.000 c 15203 11571 m  15275 11571 15348 11569 15422 11562 ct 15869 11520 16250 11331 16570 11017 ct 
16506 10952 16443 10889 16379 10826 ct 16058 11135 15677 11300 15230 11300 ct 
14783 11300 14401 11135 14082 10827 ct 14018 10890 13955 10954 13889 11019 ct 
14265 11378 14702 11567 15203 11571 ct 15203 11571 l  p
15217 11029 m  15269 11029 15321 11027 15374 11021 ct 15691 10990 15961 10855 16187 10633 ct 
16122 10568 16060 10505 15996 10441 ct 15782 10648 15527 10758 15229 10758 ct 
14931 10758 14677 10648 14465 10442 ct 14401 10506 14337 10569 14272 10634 ct 
14543 10892 14857 11027 15217 11029 ct 15217 11029 l  p
15252 10487 m  15461 10481 15662 10396 15802 10249 ct 15738 10185 15675 10122 15611 10058 ct 
15403 10266 15062 10270 14849 10059 ct 14784 10123 14721 10186 14657 10250 ct 
14827 10419 15043 10492 15252 10487 ct 15252 10487 l  p
15236 9944 m  15307 9942 15375 9914 15419 9864 ct 15355 9800 15292 9737 15230 9675 ct 
15167 9737 15104 9801 15040 9864 ct 15093 9920 15165 9945 15236 9944 ct 15236 9944 l 
p
16570 11571 m  16570 11571 l  p
13889 9674 m  13889 9674 l  p ef
pum
13970 12441 t
0.003 0.464 0.730 c 304 -344 m  337 -344 361 -350 376 -363 ct 390 -375 397 -396 397 -424 ct 
397 -452 390 -473 376 -485 ct 361 -497 337 -503 304 -503 ct 237 -503 l  237 -344 l 
304 -344 l  p
237 -234 m  237 0 l  78 0 l  78 -619 l  321 -619 l  402 -619 462 -605 500 -578 ct 
538 -550 557 -507 557 -448 ct 557 -407 547 -373 527 -347 ct 507 -321 478 -302 438 -289 ct 
460 -284 479 -273 496 -255 ct 514 -238 531 -211 549 -176 ct 635 0 l  466 0 l 
390 -154 l  375 -185 360 -206 344 -217 ct 329 -228 308 -234 282 -234 ct 237 -234 l 
p ef
956 -344 m  989 -344 1013 -350 1028 -363 ct 1042 -375 1049 -396 1049 -424 ct 
1049 -452 1042 -473 1028 -485 ct 1013 -497 989 -503 956 -503 ct 889 -503 l  889 -344 l 
956 -344 l  p
889 -234 m  889 0 l  730 0 l  730 -619 l  973 -619 l  1054 -619 1114 -605 1152 -578 ct 
1190 -550 1209 -507 1209 -448 ct 1209 -407 1199 -373 1179 -347 ct 1159 -321 1130 -302 1090 -289 ct 
1112 -284 1131 -273 1148 -255 ct 1166 -238 1183 -211 1201 -176 ct 1287 0 l  1118 0 l 
1042 -154 l  1027 -185 1012 -206 996 -217 ct 981 -228 960 -234 934 -234 ct 889 -234 l 
p ef
1382 -619 m  1811 -619 l  1811 -498 l  1541 -498 l  1541 -383 l  1795 -383 l 
1795 -262 l  1541 -262 l  1541 -121 l  1821 -121 l  1821 0 l  1382 0 l 
1382 -619 l  p ef
2261 11 m  2248 11 l  2147 11 2067 -17 2011 -73 ct 1954 -130 1926 -208 1926 -309 ct 
1926 -409 1954 -487 2011 -544 ct 2067 -601 2145 -630 2244 -630 ct 2344 -630 2422 -601 2478 -545 ct 
2534 -489 2561 -410 2561 -309 ct 2561 -239 2547 -179 2517 -129 ct 2487 -79 2445 -41 2389 -16 ct 
2513 124 l  2362 124 l  2261 11 l  p
2244 -514 m  2195 -514 2158 -496 2131 -460 ct 2104 -424 2091 -374 2091 -309 ct 
2091 -242 2104 -192 2130 -157 ct 2156 -121 2194 -104 2244 -104 ct 2293 -104 2330 -122 2357 -158 ct 
2384 -193 2397 -244 2397 -309 ct 2397 -374 2384 -424 2357 -460 ct 2330 -496 2293 -514 2244 -514 ct 
p ef
pom
151 lw 2 lj 0.652 0.085 0.003 c 20779 6597 m  19760 5398 l  ps
19307 4864 m  20078 5193 l  19598 5207 l  19507 5678 l  19307 4864 l  p ef
16156 18176 m  17170 16676 l  ps
17562 16096 m  17453 16927 l  17310 16469 l  16831 16507 l  17562 16096 l 
p ef
19729 12896 m  21211 10796 l  ps
21615 10224 m  21489 11053 l  21356 10592 l  20876 10620 l  21615 10224 l 
p ef
gr
gs
0 0 m 36123 0 l 36123 27092 l 0 27092 l 0 0 l eoclip newpath
gr
gr
0 27093 t 
pom
count op_count sub {pop} repeat countdictstack dict_count sub {end} repeat b4_inc_state restore
%%PageTrailer
%%Trailer
%%EOF
